{
  "project_info": {
    "project_number": "241663038141",
    "firebase_url": "https://isuaepsdev.firebaseio.com",
    "project_id": "isuaepsdev",
    "storage_bucket": "isuaepsdev.appspot.com"
  },
  "client": [
    {
      "client_info": {
        "mobilesdk_app_id": "1:241663038141:android:5112445a39929bef",
        "android_client_info": {
          "package_name": "com.cyrusbion.aeps"
        }
      },
      "oauth_client": [
        {
          "client_id": "241663038141-nmi0406gc6vtmfupm4mbbcls28k5p5jr.apps.googleusercontent.com",
          "client_type": 3
        }
      ],
      "api_key": [
        {
          "current_key": "AIzaSyAURZ4sUCb_Hqk45ZBFRwVqC_sSjdDGtJo"
        }
      ],
      "services": {
        "appinvite_service": {
          "other_platform_oauth_client": [
            {
              "client_id": "241663038141-nmi0406gc6vtmfupm4mbbcls28k5p5jr.apps.googleusercontent.com",
              "client_type": 3
            }
          ]
        }
      }
    },
    {
      "client_info": {
        "mobilesdk_app_id": "1:241663038141:android:39ea9bcae85635e6",
        "android_client_info": {
          "package_name": "com.digitalpayy.digitalpayyaeps"
        }
      },
      "oauth_client": [
        {
          "client_id": "241663038141-nmi0406gc6vtmfupm4mbbcls28k5p5jr.apps.googleusercontent.com",
          "client_type": 3
        }
      ],
      "api_key": [
        {
          "current_key": "AIzaSyAURZ4sUCb_Hqk45ZBFRwVqC_sSjdDGtJo"
        }
      ],
      "services": {
        "appinvite_service": {
          "other_platform_oauth_client": [
            {
              "client_id": "241663038141-nmi0406gc6vtmfupm4mbbcls28k5p5jr.apps.googleusercontent.com",
              "client_type": 3
            }
          ]
        }
      }
    },
    {
      "client_info": {
        "mobilesdk_app_id": "1:241663038141:android:505fc2c5173181d1",
        "android_client_info": {
          "package_name": "com.emarks.emarksaeps"
        }
      },
      "oauth_client": [
        {
          "client_id": "241663038141-nmi0406gc6vtmfupm4mbbcls28k5p5jr.apps.googleusercontent.com",
          "client_type": 3
        }
      ],
      "api_key": [
        {
          "current_key": "AIzaSyAURZ4sUCb_Hqk45ZBFRwVqC_sSjdDGtJo"
        }
      ],
      "services": {
        "appinvite_service": {
          "other_platform_oauth_client": [
            {
              "client_id": "241663038141-nmi0406gc6vtmfupm4mbbcls28k5p5jr.apps.googleusercontent.com",
              "client_type": 3
            }
          ]
        }
      }
    },
    {
      "client_info": {
        "mobilesdk_app_id": "1:241663038141:android:5045b64e982ca76b",
        "android_client_info": {
          "package_name": "com.fantacy.fantacyaeps"
        }
      },
      "oauth_client": [
        {
          "client_id": "241663038141-nmi0406gc6vtmfupm4mbbcls28k5p5jr.apps.googleusercontent.com",
          "client_type": 3
        }
      ],
      "api_key": [
        {
          "current_key": "AIzaSyAURZ4sUCb_Hqk45ZBFRwVqC_sSjdDGtJo"
        }
      ],
      "services": {
        "appinvite_service": {
          "other_platform_oauth_client": [
            {
              "client_id": "241663038141-nmi0406gc6vtmfupm4mbbcls28k5p5jr.apps.googleusercontent.com",
              "client_type": 3
            }
          ]
        }
      }
    },
    {
      "client_info": {
        "mobilesdk_app_id": "1:241663038141:android:12e4635a496d345b",
        "android_client_info": {
          "package_name": "com.gazipay.gazipayaeps"
        }
      },
      "oauth_client": [
        {
          "client_id": "241663038141-nmi0406gc6vtmfupm4mbbcls28k5p5jr.apps.googleusercontent.com",
          "client_type": 3
        }
      ],
      "api_key": [
        {
          "current_key": "AIzaSyAURZ4sUCb_Hqk45ZBFRwVqC_sSjdDGtJo"
        }
      ],
      "services": {
        "appinvite_service": {
          "other_platform_oauth_client": [
            {
              "client_id": "241663038141-nmi0406gc6vtmfupm4mbbcls28k5p5jr.apps.googleusercontent.com",
              "client_type": 3
            }
          ]
        }
      }
    },
    {
      "client_info": {
        "mobilesdk_app_id": "1:241663038141:android:9677c37d4a9279f2",
        "android_client_info": {
          "package_name": "com.iserve.iservepay"
        }
      },
      "oauth_client": [
        {
          "client_id": "241663038141-nmi0406gc6vtmfupm4mbbcls28k5p5jr.apps.googleusercontent.com",
          "client_type": 3
        }
      ],
      "api_key": [
        {
          "current_key": "AIzaSyAURZ4sUCb_Hqk45ZBFRwVqC_sSjdDGtJo"
        }
      ],
      "services": {
        "appinvite_service": {
          "other_platform_oauth_client": [
            {
              "client_id": "241663038141-nmi0406gc6vtmfupm4mbbcls28k5p5jr.apps.googleusercontent.com",
              "client_type": 3
            }
          ]
        }
      }
    },
    {
      "client_info": {
        "mobilesdk_app_id": "1:241663038141:android:051f63d0859b50fb",
        "android_client_info": {
          "package_name": "com.iserveu.aadritpay"
        }
      },
      "oauth_client": [
        {
          "client_id": "241663038141-nmi0406gc6vtmfupm4mbbcls28k5p5jr.apps.googleusercontent.com",
          "client_type": 3
        }
      ],
      "api_key": [
        {
          "current_key": "AIzaSyAURZ4sUCb_Hqk45ZBFRwVqC_sSjdDGtJo"
        }
      ],
      "services": {
        "appinvite_service": {
          "other_platform_oauth_client": [
            {
              "client_id": "241663038141-nmi0406gc6vtmfupm4mbbcls28k5p5jr.apps.googleusercontent.com",
              "client_type": 3
            }
          ]
        }
      }
    },
    {
      "client_info": {
        "mobilesdk_app_id": "1:241663038141:android:b00ed152e679aec7",
        "android_client_info": {
          "package_name": "com.iserveu.aapkaatm"
        }
      },
      "oauth_client": [
        {
          "client_id": "241663038141-nmi0406gc6vtmfupm4mbbcls28k5p5jr.apps.googleusercontent.com",
          "client_type": 3
        }
      ],
      "api_key": [
        {
          "current_key": "AIzaSyAURZ4sUCb_Hqk45ZBFRwVqC_sSjdDGtJo"
        }
      ],
      "services": {
        "appinvite_service": {
          "other_platform_oauth_client": [
            {
              "client_id": "241663038141-nmi0406gc6vtmfupm4mbbcls28k5p5jr.apps.googleusercontent.com",
              "client_type": 3
            }
          ]
        }
      }
    },
    {
      "client_info": {
        "mobilesdk_app_id": "1:241663038141:android:f007f4ae59301a37",
        "android_client_info": {
          "package_name": "com.iserveu.aeps"
        }
      },
      "oauth_client": [
        {
          "client_id": "241663038141-nmi0406gc6vtmfupm4mbbcls28k5p5jr.apps.googleusercontent.com",
          "client_type": 3
        }
      ],
      "api_key": [
        {
          "current_key": "AIzaSyAURZ4sUCb_Hqk45ZBFRwVqC_sSjdDGtJo"
        }
      ],
      "services": {
        "appinvite_service": {
          "other_platform_oauth_client": [
            {
              "client_id": "241663038141-nmi0406gc6vtmfupm4mbbcls28k5p5jr.apps.googleusercontent.com",
              "client_type": 3
            }
          ]
        }
      }
    },
    {
      "client_info": {
        "mobilesdk_app_id": "1:241663038141:android:543dfa043dc2a310",
        "android_client_info": {
          "package_name": "com.iserveu.aepsStagging"
        }
      },
      "oauth_client": [
        {
          "client_id": "241663038141-nmi0406gc6vtmfupm4mbbcls28k5p5jr.apps.googleusercontent.com",
          "client_type": 3
        }
      ],
      "api_key": [
        {
          "current_key": "AIzaSyAURZ4sUCb_Hqk45ZBFRwVqC_sSjdDGtJo"
        }
      ],
      "services": {
        "appinvite_service": {
          "other_platform_oauth_client": [
            {
              "client_id": "241663038141-nmi0406gc6vtmfupm4mbbcls28k5p5jr.apps.googleusercontent.com",
              "client_type": 3
            }
          ]
        }
      }
    },
    {
      "client_info": {
        "mobilesdk_app_id": "1:241663038141:android:7c7e213585ced9f5",
        "android_client_info": {
          "package_name": "com.iserveu.bisani"
        }
      },
      "oauth_client": [
        {
          "client_id": "241663038141-nmi0406gc6vtmfupm4mbbcls28k5p5jr.apps.googleusercontent.com",
          "client_type": 3
        }
      ],
      "api_key": [
        {
          "current_key": "AIzaSyAURZ4sUCb_Hqk45ZBFRwVqC_sSjdDGtJo"
        }
      ],
      "services": {
        "appinvite_service": {
          "other_platform_oauth_client": [
            {
              "client_id": "241663038141-nmi0406gc6vtmfupm4mbbcls28k5p5jr.apps.googleusercontent.com",
              "client_type": 3
            }
          ]
        }
      }
    },
    {
      "client_info": {
        "mobilesdk_app_id": "1:241663038141:android:fad96fa738a79076",
        "android_client_info": {
          "package_name": "com.iserveu.bomoney"
        }
      },
      "oauth_client": [
        {
          "client_id": "241663038141-nmi0406gc6vtmfupm4mbbcls28k5p5jr.apps.googleusercontent.com",
          "client_type": 3
        }
      ],
      "api_key": [
        {
          "current_key": "AIzaSyAURZ4sUCb_Hqk45ZBFRwVqC_sSjdDGtJo"
        }
      ],
      "services": {
        "appinvite_service": {
          "other_platform_oauth_client": [
            {
              "client_id": "241663038141-nmi0406gc6vtmfupm4mbbcls28k5p5jr.apps.googleusercontent.com",
              "client_type": 3
            }
          ]
        }
      }
    },
    {
      "client_info": {
        "mobilesdk_app_id": "1:241663038141:android:08ed426197d3c6d9",
        "android_client_info": {
          "package_name": "com.iserveu.bringpay"
        }
      },
      "oauth_client": [
        {
          "client_id": "241663038141-nmi0406gc6vtmfupm4mbbcls28k5p5jr.apps.googleusercontent.com",
          "client_type": 3
        }
      ],
      "api_key": [
        {
          "current_key": "AIzaSyAURZ4sUCb_Hqk45ZBFRwVqC_sSjdDGtJo"
        }
      ],
      "services": {
        "appinvite_service": {
          "other_platform_oauth_client": [
            {
              "client_id": "241663038141-nmi0406gc6vtmfupm4mbbcls28k5p5jr.apps.googleusercontent.com",
              "client_type": 3
            }
          ]
        }
      }
    },
    {
      "client_info": {
        "mobilesdk_app_id": "1:241663038141:android:ff786bda94e20372",
        "android_client_info": {
          "package_name": "com.iserveu.cashand"
        }
      },
      "oauth_client": [
        {
          "client_id": "241663038141-nmi0406gc6vtmfupm4mbbcls28k5p5jr.apps.googleusercontent.com",
          "client_type": 3
        }
      ],
      "api_key": [
        {
          "current_key": "AIzaSyAURZ4sUCb_Hqk45ZBFRwVqC_sSjdDGtJo"
        }
      ],
      "services": {
        "appinvite_service": {
          "other_platform_oauth_client": [
            {
              "client_id": "241663038141-nmi0406gc6vtmfupm4mbbcls28k5p5jr.apps.googleusercontent.com",
              "client_type": 3
            }
          ]
        }
      }
    },
    {
      "client_info": {
        "mobilesdk_app_id": "1:241663038141:android:f027073a393ed571",
        "android_client_info": {
          "package_name": "com.iserveu.cashnear"
        }
      },
      "oauth_client": [
        {
          "client_id": "241663038141-nmi0406gc6vtmfupm4mbbcls28k5p5jr.apps.googleusercontent.com",
          "client_type": 3
        }
      ],
      "api_key": [
        {
          "current_key": "AIzaSyAURZ4sUCb_Hqk45ZBFRwVqC_sSjdDGtJo"
        }
      ],
      "services": {
        "appinvite_service": {
          "other_platform_oauth_client": [
            {
              "client_id": "241663038141-nmi0406gc6vtmfupm4mbbcls28k5p5jr.apps.googleusercontent.com",
              "client_type": 3
            }
          ]
        }
      }
    },
    {
      "client_info": {
        "mobilesdk_app_id": "1:241663038141:android:ab81482bd3ff6890",
        "android_client_info": {
          "package_name": "com.iserveu.csppsp"
        }
      },
      "oauth_client": [
        {
          "client_id": "241663038141-nmi0406gc6vtmfupm4mbbcls28k5p5jr.apps.googleusercontent.com",
          "client_type": 3
        }
      ],
      "api_key": [
        {
          "current_key": "AIzaSyAURZ4sUCb_Hqk45ZBFRwVqC_sSjdDGtJo"
        }
      ],
      "services": {
        "appinvite_service": {
          "other_platform_oauth_client": [
            {
              "client_id": "241663038141-nmi0406gc6vtmfupm4mbbcls28k5p5jr.apps.googleusercontent.com",
              "client_type": 3
            }
          ]
        }
      }
    },
    {
      "client_info": {
        "mobilesdk_app_id": "1:241663038141:android:1ebab3b8378ca860",
        "android_client_info": {
          "package_name": "com.iserveu.digipayfast"
        }
      },
      "oauth_client": [
        {
          "client_id": "241663038141-nmi0406gc6vtmfupm4mbbcls28k5p5jr.apps.googleusercontent.com",
          "client_type": 3
        }
      ],
      "api_key": [
        {
          "current_key": "AIzaSyAURZ4sUCb_Hqk45ZBFRwVqC_sSjdDGtJo"
        }
      ],
      "services": {
        "appinvite_service": {
          "other_platform_oauth_client": [
            {
              "client_id": "241663038141-nmi0406gc6vtmfupm4mbbcls28k5p5jr.apps.googleusercontent.com",
              "client_type": 3
            }
          ]
        }
      }
    },
    {
      "client_info": {
        "mobilesdk_app_id": "1:241663038141:android:b746624cd2081be7",
        "android_client_info": {
          "package_name": "com.iserveu.digitalindiabanking"
        }
      },
      "oauth_client": [
        {
          "client_id": "241663038141-nmi0406gc6vtmfupm4mbbcls28k5p5jr.apps.googleusercontent.com",
          "client_type": 3
        }
      ],
      "api_key": [
        {
          "current_key": "AIzaSyAURZ4sUCb_Hqk45ZBFRwVqC_sSjdDGtJo"
        }
      ],
      "services": {
        "appinvite_service": {
          "other_platform_oauth_client": [
            {
              "client_id": "241663038141-nmi0406gc6vtmfupm4mbbcls28k5p5jr.apps.googleusercontent.com",
              "client_type": 3
            }
          ]
        }
      }
    },
    {
      "client_info": {
        "mobilesdk_app_id": "1:241663038141:android:f1ff3fe8f1390ca6",
        "android_client_info": {
          "package_name": "com.iserveu.digitalmoney"
        }
      },
      "oauth_client": [
        {
          "client_id": "241663038141-nmi0406gc6vtmfupm4mbbcls28k5p5jr.apps.googleusercontent.com",
          "client_type": 3
        }
      ],
      "api_key": [
        {
          "current_key": "AIzaSyAURZ4sUCb_Hqk45ZBFRwVqC_sSjdDGtJo"
        }
      ],
      "services": {
        "appinvite_service": {
          "other_platform_oauth_client": [
            {
              "client_id": "241663038141-nmi0406gc6vtmfupm4mbbcls28k5p5jr.apps.googleusercontent.com",
              "client_type": 3
            }
          ]
        }
      }
    },
    {
      "client_info": {
        "mobilesdk_app_id": "1:241663038141:android:92285517dbe8da4b",
        "android_client_info": {
          "package_name": "com.iserveu.dpay"
        }
      },
      "oauth_client": [
        {
          "client_id": "241663038141-nmi0406gc6vtmfupm4mbbcls28k5p5jr.apps.googleusercontent.com",
          "client_type": 3
        }
      ],
      "api_key": [
        {
          "current_key": "AIzaSyAURZ4sUCb_Hqk45ZBFRwVqC_sSjdDGtJo"
        }
      ],
      "services": {
        "appinvite_service": {
          "other_platform_oauth_client": [
            {
              "client_id": "241663038141-nmi0406gc6vtmfupm4mbbcls28k5p5jr.apps.googleusercontent.com",
              "client_type": 3
            }
          ]
        }
      }
    },
    {
      "client_info": {
        "mobilesdk_app_id": "1:241663038141:android:019147cdb38b5046",
        "android_client_info": {
          "package_name": "com.iserveu.dseva"
        }
      },
      "oauth_client": [
        {
          "client_id": "241663038141-nmi0406gc6vtmfupm4mbbcls28k5p5jr.apps.googleusercontent.com",
          "client_type": 3
        }
      ],
      "api_key": [
        {
          "current_key": "AIzaSyAURZ4sUCb_Hqk45ZBFRwVqC_sSjdDGtJo"
        }
      ],
      "services": {
        "appinvite_service": {
          "other_platform_oauth_client": [
            {
              "client_id": "241663038141-nmi0406gc6vtmfupm4mbbcls28k5p5jr.apps.googleusercontent.com",
              "client_type": 3
            }
          ]
        }
      }
    },
    {
      "client_info": {
        "mobilesdk_app_id": "1:241663038141:android:3baa2b924c53bcc3",
        "android_client_info": {
          "package_name": "com.iserveu.easycashpoint"
        }
      },
      "oauth_client": [
        {
          "client_id": "241663038141-nmi0406gc6vtmfupm4mbbcls28k5p5jr.apps.googleusercontent.com",
          "client_type": 3
        }
      ],
      "api_key": [
        {
          "current_key": "AIzaSyAURZ4sUCb_Hqk45ZBFRwVqC_sSjdDGtJo"
        }
      ],
      "services": {
        "appinvite_service": {
          "other_platform_oauth_client": [
            {
              "client_id": "241663038141-nmi0406gc6vtmfupm4mbbcls28k5p5jr.apps.googleusercontent.com",
              "client_type": 3
            }
          ]
        }
      }
    },
    {
      "client_info": {
        "mobilesdk_app_id": "1:241663038141:android:db04ab784ce61c56",
        "android_client_info": {
          "package_name": "com.iserveu.eeasycash"
        }
      },
      "oauth_client": [
        {
          "client_id": "241663038141-nmi0406gc6vtmfupm4mbbcls28k5p5jr.apps.googleusercontent.com",
          "client_type": 3
        }
      ],
      "api_key": [
        {
          "current_key": "AIzaSyAURZ4sUCb_Hqk45ZBFRwVqC_sSjdDGtJo"
        }
      ],
      "services": {
        "appinvite_service": {
          "other_platform_oauth_client": [
            {
              "client_id": "241663038141-nmi0406gc6vtmfupm4mbbcls28k5p5jr.apps.googleusercontent.com",
              "client_type": 3
            }
          ]
        }
      }
    },
    {
      "client_info": {
        "mobilesdk_app_id": "1:241663038141:android:e0bf89a7e02ef99a",
        "android_client_info": {
          "package_name": "com.iserveu.emitrahub"
        }
      },
      "oauth_client": [
        {
          "client_id": "241663038141-nmi0406gc6vtmfupm4mbbcls28k5p5jr.apps.googleusercontent.com",
          "client_type": 3
        }
      ],
      "api_key": [
        {
          "current_key": "AIzaSyAURZ4sUCb_Hqk45ZBFRwVqC_sSjdDGtJo"
        }
      ],
      "services": {
        "appinvite_service": {
          "other_platform_oauth_client": [
            {
              "client_id": "241663038141-nmi0406gc6vtmfupm4mbbcls28k5p5jr.apps.googleusercontent.com",
              "client_type": 3
            }
          ]
        }
      }
    },
    {
      "client_info": {
        "mobilesdk_app_id": "1:241663038141:android:c72a1842322661bd",
        "android_client_info": {
          "package_name": "com.iserveu.esavapay"
        }
      },
      "oauth_client": [
        {
          "client_id": "241663038141-nmi0406gc6vtmfupm4mbbcls28k5p5jr.apps.googleusercontent.com",
          "client_type": 3
        }
      ],
      "api_key": [
        {
          "current_key": "AIzaSyAURZ4sUCb_Hqk45ZBFRwVqC_sSjdDGtJo"
        }
      ],
      "services": {
        "appinvite_service": {
          "other_platform_oauth_client": [
            {
              "client_id": "241663038141-nmi0406gc6vtmfupm4mbbcls28k5p5jr.apps.googleusercontent.com",
              "client_type": 3
            }
          ]
        }
      }
    },
    {
      "client_info": {
        "mobilesdk_app_id": "1:241663038141:android:a8b26de36ebed243",
        "android_client_info": {
          "package_name": "com.iserveu.finwy"
        }
      },
      "oauth_client": [
        {
          "client_id": "241663038141-nmi0406gc6vtmfupm4mbbcls28k5p5jr.apps.googleusercontent.com",
          "client_type": 3
        }
      ],
      "api_key": [
        {
          "current_key": "AIzaSyAURZ4sUCb_Hqk45ZBFRwVqC_sSjdDGtJo"
        }
      ],
      "services": {
        "appinvite_service": {
          "other_platform_oauth_client": [
            {
              "client_id": "241663038141-nmi0406gc6vtmfupm4mbbcls28k5p5jr.apps.googleusercontent.com",
              "client_type": 3
            }
          ]
        }
      }
    },
    {
      "client_info": {
        "mobilesdk_app_id": "1:241663038141:android:0f8015c79ab10cc2",
        "android_client_info": {
          "package_name": "com.iserveu.fipayaeps"
        }
      },
      "oauth_client": [
        {
          "client_id": "241663038141-nmi0406gc6vtmfupm4mbbcls28k5p5jr.apps.googleusercontent.com",
          "client_type": 3
        }
      ],
      "api_key": [
        {
          "current_key": "AIzaSyAURZ4sUCb_Hqk45ZBFRwVqC_sSjdDGtJo"
        }
      ],
      "services": {
        "appinvite_service": {
          "other_platform_oauth_client": [
            {
              "client_id": "241663038141-nmi0406gc6vtmfupm4mbbcls28k5p5jr.apps.googleusercontent.com",
              "client_type": 3
            }
          ]
        }
      }
    },
    {
      "client_info": {
        "mobilesdk_app_id": "1:241663038141:android:9553425e54e66449",
        "android_client_info": {
          "package_name": "com.iserveu.friendpay"
        }
      },
      "oauth_client": [
        {
          "client_id": "241663038141-nmi0406gc6vtmfupm4mbbcls28k5p5jr.apps.googleusercontent.com",
          "client_type": 3
        }
      ],
      "api_key": [
        {
          "current_key": "AIzaSyAURZ4sUCb_Hqk45ZBFRwVqC_sSjdDGtJo"
        }
      ],
      "services": {
        "appinvite_service": {
          "other_platform_oauth_client": [
            {
              "client_id": "241663038141-nmi0406gc6vtmfupm4mbbcls28k5p5jr.apps.googleusercontent.com",
              "client_type": 3
            }
          ]
        }
      }
    },
    {
      "client_info": {
        "mobilesdk_app_id": "1:241663038141:android:3f2e892d3c82e8ea",
        "android_client_info": {
          "package_name": "com.iserveu.friendspay"
        }
      },
      "oauth_client": [
        {
          "client_id": "241663038141-nmi0406gc6vtmfupm4mbbcls28k5p5jr.apps.googleusercontent.com",
          "client_type": 3
        }
      ],
      "api_key": [
        {
          "current_key": "AIzaSyAURZ4sUCb_Hqk45ZBFRwVqC_sSjdDGtJo"
        }
      ],
      "services": {
        "appinvite_service": {
          "other_platform_oauth_client": [
            {
              "client_id": "241663038141-nmi0406gc6vtmfupm4mbbcls28k5p5jr.apps.googleusercontent.com",
              "client_type": 3
            }
          ]
        }
      }
    },
    {
      "client_info": {
        "mobilesdk_app_id": "1:241663038141:android:4f4289eab9e1f082",
        "android_client_info": {
          "package_name": "com.iserveu.fundpe"
        }
      },
      "oauth_client": [
        {
          "client_id": "241663038141-nmi0406gc6vtmfupm4mbbcls28k5p5jr.apps.googleusercontent.com",
          "client_type": 3
        }
      ],
      "api_key": [
        {
          "current_key": "AIzaSyAURZ4sUCb_Hqk45ZBFRwVqC_sSjdDGtJo"
        }
      ],
      "services": {
        "appinvite_service": {
          "other_platform_oauth_client": [
            {
              "client_id": "241663038141-nmi0406gc6vtmfupm4mbbcls28k5p5jr.apps.googleusercontent.com",
              "client_type": 3
            }
          ]
        }
      }
    },
    {
      "client_info": {
        "mobilesdk_app_id": "1:241663038141:android:e61a95e278629fc5",
        "android_client_info": {
          "package_name": "com.iserveu.getmytravel"
        }
      },
      "oauth_client": [
        {
          "client_id": "241663038141-nmi0406gc6vtmfupm4mbbcls28k5p5jr.apps.googleusercontent.com",
          "client_type": 3
        }
      ],
      "api_key": [
        {
          "current_key": "AIzaSyAURZ4sUCb_Hqk45ZBFRwVqC_sSjdDGtJo"
        }
      ],
      "services": {
        "appinvite_service": {
          "other_platform_oauth_client": [
            {
              "client_id": "241663038141-nmi0406gc6vtmfupm4mbbcls28k5p5jr.apps.googleusercontent.com",
              "client_type": 3
            }
          ]
        }
      }
    },
    {
      "client_info": {
        "mobilesdk_app_id": "1:241663038141:android:88950087e4df46a6",
        "android_client_info": {
          "package_name": "com.iserveu.greenpayindia"
        }
      },
      "oauth_client": [
        {
          "client_id": "241663038141-nmi0406gc6vtmfupm4mbbcls28k5p5jr.apps.googleusercontent.com",
          "client_type": 3
        }
      ],
      "api_key": [
        {
          "current_key": "AIzaSyAURZ4sUCb_Hqk45ZBFRwVqC_sSjdDGtJo"
        }
      ],
      "services": {
        "appinvite_service": {
          "other_platform_oauth_client": [
            {
              "client_id": "241663038141-nmi0406gc6vtmfupm4mbbcls28k5p5jr.apps.googleusercontent.com",
              "client_type": 3
            }
          ]
        }
      }
    },
    {
      "client_info": {
        "mobilesdk_app_id": "1:241663038141:android:2e3ac35f6d7521cf",
        "android_client_info": {
          "package_name": "com.iserveu.gsanjyog"
        }
      },
      "oauth_client": [
        {
          "client_id": "241663038141-nmi0406gc6vtmfupm4mbbcls28k5p5jr.apps.googleusercontent.com",
          "client_type": 3
        }
      ],
      "api_key": [
        {
          "current_key": "AIzaSyAURZ4sUCb_Hqk45ZBFRwVqC_sSjdDGtJo"
        }
      ],
      "services": {
        "appinvite_service": {
          "other_platform_oauth_client": [
            {
              "client_id": "241663038141-nmi0406gc6vtmfupm4mbbcls28k5p5jr.apps.googleusercontent.com",
              "client_type": 3
            }
          ]
        }
      }
    },
    {
      "client_info": {
        "mobilesdk_app_id": "1:241663038141:android:56fcf0552f332884",
        "android_client_info": {
          "package_name": "com.iserveu.haritechindia"
        }
      },
      "oauth_client": [
        {
          "client_id": "241663038141-nmi0406gc6vtmfupm4mbbcls28k5p5jr.apps.googleusercontent.com",
          "client_type": 3
        }
      ],
      "api_key": [
        {
          "current_key": "AIzaSyAURZ4sUCb_Hqk45ZBFRwVqC_sSjdDGtJo"
        }
      ],
      "services": {
        "appinvite_service": {
          "other_platform_oauth_client": [
            {
              "client_id": "241663038141-nmi0406gc6vtmfupm4mbbcls28k5p5jr.apps.googleusercontent.com",
              "client_type": 3
            }
          ]
        }
      }
    },
    {
      "client_info": {
        "mobilesdk_app_id": "1:241663038141:android:dc2953278639d695",
        "android_client_info": {
          "package_name": "com.iserveu.instacash"
        }
      },
      "oauth_client": [
        {
          "client_id": "241663038141-nmi0406gc6vtmfupm4mbbcls28k5p5jr.apps.googleusercontent.com",
          "client_type": 3
        }
      ],
      "api_key": [
        {
          "current_key": "AIzaSyAURZ4sUCb_Hqk45ZBFRwVqC_sSjdDGtJo"
        }
      ],
      "services": {
        "appinvite_service": {
          "other_platform_oauth_client": [
            {
              "client_id": "241663038141-nmi0406gc6vtmfupm4mbbcls28k5p5jr.apps.googleusercontent.com",
              "client_type": 3
            }
          ]
        }
      }
    },
    {
      "client_info": {
        "mobilesdk_app_id": "1:241663038141:android:efccd43609fe085f",
        "android_client_info": {
          "package_name": "com.iserveu.instantpayments"
        }
      },
      "oauth_client": [
        {
          "client_id": "241663038141-nmi0406gc6vtmfupm4mbbcls28k5p5jr.apps.googleusercontent.com",
          "client_type": 3
        }
      ],
      "api_key": [
        {
          "current_key": "AIzaSyAURZ4sUCb_Hqk45ZBFRwVqC_sSjdDGtJo"
        }
      ],
      "services": {
        "appinvite_service": {
          "other_platform_oauth_client": [
            {
              "client_id": "241663038141-nmi0406gc6vtmfupm4mbbcls28k5p5jr.apps.googleusercontent.com",
              "client_type": 3
            }
          ]
        }
      }
    },
    {
      "client_info": {
        "mobilesdk_app_id": "1:241663038141:android:faf0643ff186ef0a",
        "android_client_info": {
          "package_name": "com.iserveu.iservepay"
        }
      },
      "oauth_client": [
        {
          "client_id": "241663038141-nmi0406gc6vtmfupm4mbbcls28k5p5jr.apps.googleusercontent.com",
          "client_type": 3
        }
      ],
      "api_key": [
        {
          "current_key": "AIzaSyAURZ4sUCb_Hqk45ZBFRwVqC_sSjdDGtJo"
        }
      ],
      "services": {
        "appinvite_service": {
          "other_platform_oauth_client": [
            {
              "client_id": "241663038141-nmi0406gc6vtmfupm4mbbcls28k5p5jr.apps.googleusercontent.com",
              "client_type": 3
            }
          ]
        }
      }
    },
    {
      "client_info": {
        "mobilesdk_app_id": "1:241663038141:android:d9bcf5479a1500b9",
        "android_client_info": {
          "package_name": "com.iserveu.isewa"
        }
      },
      "oauth_client": [
        {
          "client_id": "241663038141-nmi0406gc6vtmfupm4mbbcls28k5p5jr.apps.googleusercontent.com",
          "client_type": 3
        }
      ],
      "api_key": [
        {
          "current_key": "AIzaSyAURZ4sUCb_Hqk45ZBFRwVqC_sSjdDGtJo"
        }
      ],
      "services": {
        "appinvite_service": {
          "other_platform_oauth_client": [
            {
              "client_id": "241663038141-nmi0406gc6vtmfupm4mbbcls28k5p5jr.apps.googleusercontent.com",
              "client_type": 3
            }
          ]
        }
      }
    },
    {
      "client_info": {
        "mobilesdk_app_id": "1:241663038141:android:8084c7644ee3a265",
        "android_client_info": {
          "package_name": "com.iserveu.kishansuvidakendra"
        }
      },
      "oauth_client": [
        {
          "client_id": "241663038141-nmi0406gc6vtmfupm4mbbcls28k5p5jr.apps.googleusercontent.com",
          "client_type": 3
        }
      ],
      "api_key": [
        {
          "current_key": "AIzaSyAURZ4sUCb_Hqk45ZBFRwVqC_sSjdDGtJo"
        }
      ],
      "services": {
        "appinvite_service": {
          "other_platform_oauth_client": [
            {
              "client_id": "241663038141-nmi0406gc6vtmfupm4mbbcls28k5p5jr.apps.googleusercontent.com",
              "client_type": 3
            }
          ]
        }
      }
    },
    {
      "client_info": {
        "mobilesdk_app_id": "1:241663038141:android:8424dc9e71e913f5",
        "android_client_info": {
          "package_name": "com.iserveu.krac"
        }
      },
      "oauth_client": [
        {
          "client_id": "241663038141-nmi0406gc6vtmfupm4mbbcls28k5p5jr.apps.googleusercontent.com",
          "client_type": 3
        }
      ],
      "api_key": [
        {
          "current_key": "AIzaSyAURZ4sUCb_Hqk45ZBFRwVqC_sSjdDGtJo"
        }
      ],
      "services": {
        "appinvite_service": {
          "other_platform_oauth_client": [
            {
              "client_id": "241663038141-nmi0406gc6vtmfupm4mbbcls28k5p5jr.apps.googleusercontent.com",
              "client_type": 3
            }
          ]
        }
      }
    },
    {
      "client_info": {
        "mobilesdk_app_id": "1:241663038141:android:c74a8ffc8e220635",
        "android_client_info": {
          "package_name": "com.iserveu.matm"
        }
      },
      "oauth_client": [
        {
          "client_id": "241663038141-nmi0406gc6vtmfupm4mbbcls28k5p5jr.apps.googleusercontent.com",
          "client_type": 3
        }
      ],
      "api_key": [
        {
          "current_key": "AIzaSyAURZ4sUCb_Hqk45ZBFRwVqC_sSjdDGtJo"
        }
      ],
      "services": {
        "appinvite_service": {
          "other_platform_oauth_client": [
            {
              "client_id": "241663038141-nmi0406gc6vtmfupm4mbbcls28k5p5jr.apps.googleusercontent.com",
              "client_type": 3
            }
          ]
        }
      }
    },
    {
      "client_info": {
        "mobilesdk_app_id": "1:241663038141:android:aaf8cd7817ac3360",
        "android_client_info": {
          "package_name": "com.iserveu.mdigipay"
        }
      },
      "oauth_client": [
        {
          "client_id": "241663038141-nmi0406gc6vtmfupm4mbbcls28k5p5jr.apps.googleusercontent.com",
          "client_type": 3
        }
      ],
      "api_key": [
        {
          "current_key": "AIzaSyAURZ4sUCb_Hqk45ZBFRwVqC_sSjdDGtJo"
        }
      ],
      "services": {
        "appinvite_service": {
          "other_platform_oauth_client": [
            {
              "client_id": "241663038141-nmi0406gc6vtmfupm4mbbcls28k5p5jr.apps.googleusercontent.com",
              "client_type": 3
            }
          ]
        }
      }
    },
    {
      "client_info": {
        "mobilesdk_app_id": "1:241663038141:android:1d11591c6db063be",
        "android_client_info": {
          "package_name": "com.iserveu.money"
        }
      },
      "oauth_client": [
        {
          "client_id": "241663038141-nmi0406gc6vtmfupm4mbbcls28k5p5jr.apps.googleusercontent.com",
          "client_type": 3
        }
      ],
      "api_key": [
        {
          "current_key": "AIzaSyAURZ4sUCb_Hqk45ZBFRwVqC_sSjdDGtJo"
        }
      ],
      "services": {
        "appinvite_service": {
          "other_platform_oauth_client": [
            {
              "client_id": "241663038141-nmi0406gc6vtmfupm4mbbcls28k5p5jr.apps.googleusercontent.com",
              "client_type": 3
            }
          ]
        }
      }
    },
    {
      "client_info": {
        "mobilesdk_app_id": "1:241663038141:android:79295521aee45cc3",
        "android_client_info": {
          "package_name": "com.iserveu.movecash"
        }
      },
      "oauth_client": [
        {
          "client_id": "241663038141-nmi0406gc6vtmfupm4mbbcls28k5p5jr.apps.googleusercontent.com",
          "client_type": 3
        }
      ],
      "api_key": [
        {
          "current_key": "AIzaSyAURZ4sUCb_Hqk45ZBFRwVqC_sSjdDGtJo"
        }
      ],
      "services": {
        "appinvite_service": {
          "other_platform_oauth_client": [
            {
              "client_id": "241663038141-nmi0406gc6vtmfupm4mbbcls28k5p5jr.apps.googleusercontent.com",
              "client_type": 3
            }
          ]
        }
      }
    },
    {
      "client_info": {
        "mobilesdk_app_id": "1:241663038141:android:ba7f33514324a21a",
        "android_client_info": {
          "package_name": "com.iserveu.movecashless"
        }
      },
      "oauth_client": [
        {
          "client_id": "241663038141-nmi0406gc6vtmfupm4mbbcls28k5p5jr.apps.googleusercontent.com",
          "client_type": 3
        }
      ],
      "api_key": [
        {
          "current_key": "AIzaSyAURZ4sUCb_Hqk45ZBFRwVqC_sSjdDGtJo"
        }
      ],
      "services": {
        "appinvite_service": {
          "other_platform_oauth_client": [
            {
              "client_id": "241663038141-nmi0406gc6vtmfupm4mbbcls28k5p5jr.apps.googleusercontent.com",
              "client_type": 3
            }
          ]
        }
      }
    },
    {
      "client_info": {
        "mobilesdk_app_id": "1:241663038141:android:8f93fbc3ba555c09",
        "android_client_info": {
          "package_name": "com.iserveu.namma"
        }
      },
      "oauth_client": [
        {
          "client_id": "241663038141-nmi0406gc6vtmfupm4mbbcls28k5p5jr.apps.googleusercontent.com",
          "client_type": 3
        }
      ],
      "api_key": [
        {
          "current_key": "AIzaSyAURZ4sUCb_Hqk45ZBFRwVqC_sSjdDGtJo"
        }
      ],
      "services": {
        "appinvite_service": {
          "other_platform_oauth_client": [
            {
              "client_id": "241663038141-nmi0406gc6vtmfupm4mbbcls28k5p5jr.apps.googleusercontent.com",
              "client_type": 3
            }
          ]
        }
      }
    },
    {
      "client_info": {
        "mobilesdk_app_id": "1:241663038141:android:03c6aa1c0b75889d",
        "android_client_info": {
          "package_name": "com.iserveu.nammabharat"
        }
      },
      "oauth_client": [
        {
          "client_id": "241663038141-nmi0406gc6vtmfupm4mbbcls28k5p5jr.apps.googleusercontent.com",
          "client_type": 3
        }
      ],
      "api_key": [
        {
          "current_key": "AIzaSyAURZ4sUCb_Hqk45ZBFRwVqC_sSjdDGtJo"
        }
      ],
      "services": {
        "appinvite_service": {
          "other_platform_oauth_client": [
            {
              "client_id": "241663038141-nmi0406gc6vtmfupm4mbbcls28k5p5jr.apps.googleusercontent.com",
              "client_type": 3
            }
          ]
        }
      }
    },
    {
      "client_info": {
        "mobilesdk_app_id": "1:241663038141:android:4cd3a7bcaf17394e",
        "android_client_info": {
          "package_name": "com.iserveu.nictpay"
        }
      },
      "oauth_client": [
        {
          "client_id": "241663038141-nmi0406gc6vtmfupm4mbbcls28k5p5jr.apps.googleusercontent.com",
          "client_type": 3
        }
      ],
      "api_key": [
        {
          "current_key": "AIzaSyAURZ4sUCb_Hqk45ZBFRwVqC_sSjdDGtJo"
        }
      ],
      "services": {
        "appinvite_service": {
          "other_platform_oauth_client": [
            {
              "client_id": "241663038141-nmi0406gc6vtmfupm4mbbcls28k5p5jr.apps.googleusercontent.com",
              "client_type": 3
            }
          ]
        }
      }
    },
    {
      "client_info": {
        "mobilesdk_app_id": "1:241663038141:android:5fe66dbc2df7a633",
        "android_client_info": {
          "package_name": "com.iserveu.nirmaildigitalservices"
        }
      },
      "oauth_client": [
        {
          "client_id": "241663038141-nmi0406gc6vtmfupm4mbbcls28k5p5jr.apps.googleusercontent.com",
          "client_type": 3
        }
      ],
      "api_key": [
        {
          "current_key": "AIzaSyAURZ4sUCb_Hqk45ZBFRwVqC_sSjdDGtJo"
        }
      ],
      "services": {
        "appinvite_service": {
          "other_platform_oauth_client": [
            {
              "client_id": "241663038141-nmi0406gc6vtmfupm4mbbcls28k5p5jr.apps.googleusercontent.com",
              "client_type": 3
            }
          ]
        }
      }
    },
    {
      "client_info": {
        "mobilesdk_app_id": "1:241663038141:android:0e60ceb992225ce5",
        "android_client_info": {
          "package_name": "com.iserveu.nmarata"
        }
      },
      "oauth_client": [
        {
          "client_id": "241663038141-nmi0406gc6vtmfupm4mbbcls28k5p5jr.apps.googleusercontent.com",
          "client_type": 3
        }
      ],
      "api_key": [
        {
          "current_key": "AIzaSyAURZ4sUCb_Hqk45ZBFRwVqC_sSjdDGtJo"
        }
      ],
      "services": {
        "appinvite_service": {
          "other_platform_oauth_client": [
            {
              "client_id": "241663038141-nmi0406gc6vtmfupm4mbbcls28k5p5jr.apps.googleusercontent.com",
              "client_type": 3
            }
          ]
        }
      }
    },
    {
      "client_info": {
        "mobilesdk_app_id": "1:241663038141:android:41b178d7be07be1c",
        "android_client_info": {
          "package_name": "com.iserveu.omfinserve"
        }
      },
      "oauth_client": [
        {
          "client_id": "241663038141-nmi0406gc6vtmfupm4mbbcls28k5p5jr.apps.googleusercontent.com",
          "client_type": 3
        }
      ],
      "api_key": [
        {
          "current_key": "AIzaSyAURZ4sUCb_Hqk45ZBFRwVqC_sSjdDGtJo"
        }
      ],
      "services": {
        "appinvite_service": {
          "other_platform_oauth_client": [
            {
              "client_id": "241663038141-nmi0406gc6vtmfupm4mbbcls28k5p5jr.apps.googleusercontent.com",
              "client_type": 3
            }
          ]
        }
      }
    },
    {
      "client_info": {
        "mobilesdk_app_id": "1:241663038141:android:4ca9dc79beca3ec9",
        "android_client_info": {
          "package_name": "com.iserveu.oneindiapayments"
        }
      },
      "oauth_client": [
        {
          "client_id": "241663038141-nmi0406gc6vtmfupm4mbbcls28k5p5jr.apps.googleusercontent.com",
          "client_type": 3
        }
      ],
      "api_key": [
        {
          "current_key": "AIzaSyAURZ4sUCb_Hqk45ZBFRwVqC_sSjdDGtJo"
        }
      ],
      "services": {
        "appinvite_service": {
          "other_platform_oauth_client": [
            {
              "client_id": "241663038141-nmi0406gc6vtmfupm4mbbcls28k5p5jr.apps.googleusercontent.com",
              "client_type": 3
            }
          ]
        }
      }
    },
    {
      "client_info": {
        "mobilesdk_app_id": "1:241663038141:android:509331ae7f333652",
        "android_client_info": {
          "package_name": "com.iserveu.pagos"
        }
      },
      "oauth_client": [
        {
          "client_id": "241663038141-nmi0406gc6vtmfupm4mbbcls28k5p5jr.apps.googleusercontent.com",
          "client_type": 3
        }
      ],
      "api_key": [
        {
          "current_key": "AIzaSyAURZ4sUCb_Hqk45ZBFRwVqC_sSjdDGtJo"
        }
      ],
      "services": {
        "appinvite_service": {
          "other_platform_oauth_client": [
            {
              "client_id": "241663038141-nmi0406gc6vtmfupm4mbbcls28k5p5jr.apps.googleusercontent.com",
              "client_type": 3
            }
          ]
        }
      }
    },
    {
      "client_info": {
        "mobilesdk_app_id": "1:241663038141:android:070f6efd2adf8226",
        "android_client_info": {
          "package_name": "com.iserveu.payacross"
        }
      },
      "oauth_client": [
        {
          "client_id": "241663038141-nmi0406gc6vtmfupm4mbbcls28k5p5jr.apps.googleusercontent.com",
          "client_type": 3
        }
      ],
      "api_key": [
        {
          "current_key": "AIzaSyAURZ4sUCb_Hqk45ZBFRwVqC_sSjdDGtJo"
        }
      ],
      "services": {
        "appinvite_service": {
          "other_platform_oauth_client": [
            {
              "client_id": "241663038141-nmi0406gc6vtmfupm4mbbcls28k5p5jr.apps.googleusercontent.com",
              "client_type": 3
            }
          ]
        }
      }
    },
    {
      "client_info": {
        "mobilesdk_app_id": "1:241663038141:android:e8a2ca1990f3bcc3",
        "android_client_info": {
          "package_name": "com.iserveu.payatm"
        }
      },
      "oauth_client": [
        {
          "client_id": "241663038141-nmi0406gc6vtmfupm4mbbcls28k5p5jr.apps.googleusercontent.com",
          "client_type": 3
        }
      ],
      "api_key": [
        {
          "current_key": "AIzaSyAURZ4sUCb_Hqk45ZBFRwVqC_sSjdDGtJo"
        }
      ],
      "services": {
        "appinvite_service": {
          "other_platform_oauth_client": [
            {
              "client_id": "241663038141-nmi0406gc6vtmfupm4mbbcls28k5p5jr.apps.googleusercontent.com",
              "client_type": 3
            }
          ]
        }
      }
    },
    {
      "client_info": {
        "mobilesdk_app_id": "1:241663038141:android:8f3b74b8f16668b3",
        "android_client_info": {
          "package_name": "com.iserveu.payi4u"
        }
      },
      "oauth_client": [
        {
          "client_id": "241663038141-nmi0406gc6vtmfupm4mbbcls28k5p5jr.apps.googleusercontent.com",
          "client_type": 3
        }
      ],
      "api_key": [
        {
          "current_key": "AIzaSyAURZ4sUCb_Hqk45ZBFRwVqC_sSjdDGtJo"
        }
      ],
      "services": {
        "appinvite_service": {
          "other_platform_oauth_client": [
            {
              "client_id": "241663038141-nmi0406gc6vtmfupm4mbbcls28k5p5jr.apps.googleusercontent.com",
              "client_type": 3
            }
          ]
        }
      }
    },
    {
      "client_info": {
        "mobilesdk_app_id": "1:241663038141:android:5f045ad2ddcf72f6",
        "android_client_info": {
          "package_name": "com.iserveu.paymnc"
        }
      },
      "oauth_client": [
        {
          "client_id": "241663038141-nmi0406gc6vtmfupm4mbbcls28k5p5jr.apps.googleusercontent.com",
          "client_type": 3
        }
      ],
      "api_key": [
        {
          "current_key": "AIzaSyAURZ4sUCb_Hqk45ZBFRwVqC_sSjdDGtJo"
        }
      ],
      "services": {
        "appinvite_service": {
          "other_platform_oauth_client": [
            {
              "client_id": "241663038141-nmi0406gc6vtmfupm4mbbcls28k5p5jr.apps.googleusercontent.com",
              "client_type": 3
            }
          ]
        }
      }
    },
    {
      "client_info": {
        "mobilesdk_app_id": "1:241663038141:android:d8f605791f27f0d3",
        "android_client_info": {
          "package_name": "com.iserveu.payswift"
        }
      },
      "oauth_client": [
        {
          "client_id": "241663038141-nmi0406gc6vtmfupm4mbbcls28k5p5jr.apps.googleusercontent.com",
          "client_type": 3
        }
      ],
      "api_key": [
        {
          "current_key": "AIzaSyAURZ4sUCb_Hqk45ZBFRwVqC_sSjdDGtJo"
        }
      ],
      "services": {
        "appinvite_service": {
          "other_platform_oauth_client": [
            {
              "client_id": "241663038141-nmi0406gc6vtmfupm4mbbcls28k5p5jr.apps.googleusercontent.com",
              "client_type": 3
            }
          ]
        }
      }
    },
    {
      "client_info": {
        "mobilesdk_app_id": "1:241663038141:android:9dd47f8dfb929e3a",
        "android_client_info": {
          "package_name": "com.iserveu.payup"
        }
      },
      "oauth_client": [
        {
          "client_id": "241663038141-nmi0406gc6vtmfupm4mbbcls28k5p5jr.apps.googleusercontent.com",
          "client_type": 3
        }
      ],
      "api_key": [
        {
          "current_key": "AIzaSyAURZ4sUCb_Hqk45ZBFRwVqC_sSjdDGtJo"
        }
      ],
      "services": {
        "appinvite_service": {
          "other_platform_oauth_client": [
            {
              "client_id": "241663038141-nmi0406gc6vtmfupm4mbbcls28k5p5jr.apps.googleusercontent.com",
              "client_type": 3
            }
          ]
        }
      }
    },
    {
      "client_info": {
        "mobilesdk_app_id": "1:241663038141:android:22052798d337fc0c",
        "android_client_info": {
          "package_name": "com.iserveu.pcppay"
        }
      },
      "oauth_client": [
        {
          "client_id": "241663038141-nmi0406gc6vtmfupm4mbbcls28k5p5jr.apps.googleusercontent.com",
          "client_type": 3
        }
      ],
      "api_key": [
        {
          "current_key": "AIzaSyAURZ4sUCb_Hqk45ZBFRwVqC_sSjdDGtJo"
        }
      ],
      "services": {
        "appinvite_service": {
          "other_platform_oauth_client": [
            {
              "client_id": "241663038141-nmi0406gc6vtmfupm4mbbcls28k5p5jr.apps.googleusercontent.com",
              "client_type": 3
            }
          ]
        }
      }
    },
    {
      "client_info": {
        "mobilesdk_app_id": "1:241663038141:android:3ce3e7bd449c55e7",
        "android_client_info": {
          "package_name": "com.iserveu.phonex"
        }
      },
      "oauth_client": [
        {
          "client_id": "241663038141-nmi0406gc6vtmfupm4mbbcls28k5p5jr.apps.googleusercontent.com",
          "client_type": 3
        }
      ],
      "api_key": [
        {
          "current_key": "AIzaSyAURZ4sUCb_Hqk45ZBFRwVqC_sSjdDGtJo"
        }
      ],
      "services": {
        "appinvite_service": {
          "other_platform_oauth_client": [
            {
              "client_id": "241663038141-nmi0406gc6vtmfupm4mbbcls28k5p5jr.apps.googleusercontent.com",
              "client_type": 3
            }
          ]
        }
      }
    },
    {
      "client_info": {
        "mobilesdk_app_id": "1:241663038141:android:b4a2b7df824fe0c2",
        "android_client_info": {
          "package_name": "com.iserveu.pmoney"
        }
      },
      "oauth_client": [
        {
          "client_id": "241663038141-nmi0406gc6vtmfupm4mbbcls28k5p5jr.apps.googleusercontent.com",
          "client_type": 3
        }
      ],
      "api_key": [
        {
          "current_key": "AIzaSyAURZ4sUCb_Hqk45ZBFRwVqC_sSjdDGtJo"
        }
      ],
      "services": {
        "appinvite_service": {
          "other_platform_oauth_client": [
            {
              "client_id": "241663038141-nmi0406gc6vtmfupm4mbbcls28k5p5jr.apps.googleusercontent.com",
              "client_type": 3
            }
          ]
        }
      }
    },
    {
      "client_info": {
        "mobilesdk_app_id": "1:241663038141:android:771954a7e8123964",
        "android_client_info": {
          "package_name": "com.iserveu.pragati"
        }
      },
      "oauth_client": [
        {
          "client_id": "241663038141-nmi0406gc6vtmfupm4mbbcls28k5p5jr.apps.googleusercontent.com",
          "client_type": 3
        }
      ],
      "api_key": [
        {
          "current_key": "AIzaSyAURZ4sUCb_Hqk45ZBFRwVqC_sSjdDGtJo"
        }
      ],
      "services": {
        "appinvite_service": {
          "other_platform_oauth_client": [
            {
              "client_id": "241663038141-nmi0406gc6vtmfupm4mbbcls28k5p5jr.apps.googleusercontent.com",
              "client_type": 3
            }
          ]
        }
      }
    },
    {
      "client_info": {
        "mobilesdk_app_id": "1:241663038141:android:089fee3791482b22",
        "android_client_info": {
          "package_name": "com.iserveu.pravesh"
        }
      },
      "oauth_client": [
        {
          "client_id": "241663038141-nmi0406gc6vtmfupm4mbbcls28k5p5jr.apps.googleusercontent.com",
          "client_type": 3
        }
      ],
      "api_key": [
        {
          "current_key": "AIzaSyAURZ4sUCb_Hqk45ZBFRwVqC_sSjdDGtJo"
        }
      ],
      "services": {
        "appinvite_service": {
          "other_platform_oauth_client": [
            {
              "client_id": "241663038141-nmi0406gc6vtmfupm4mbbcls28k5p5jr.apps.googleusercontent.com",
              "client_type": 3
            }
          ]
        }
      }
    },
    {
      "client_info": {
        "mobilesdk_app_id": "1:241663038141:android:030047b19f6eb874",
        "android_client_info": {
          "package_name": "com.iserveu.quickpay"
        }
      },
      "oauth_client": [
        {
          "client_id": "241663038141-nmi0406gc6vtmfupm4mbbcls28k5p5jr.apps.googleusercontent.com",
          "client_type": 3
        }
      ],
      "api_key": [
        {
          "current_key": "AIzaSyAURZ4sUCb_Hqk45ZBFRwVqC_sSjdDGtJo"
        }
      ],
      "services": {
        "appinvite_service": {
          "other_platform_oauth_client": [
            {
              "client_id": "241663038141-nmi0406gc6vtmfupm4mbbcls28k5p5jr.apps.googleusercontent.com",
              "client_type": 3
            }
          ]
        }
      }
    },
    {
      "client_info": {
        "mobilesdk_app_id": "1:241663038141:android:ed68d3af75358f70",
        "android_client_info": {
          "package_name": "com.iserveu.raspay"
        }
      },
      "oauth_client": [
        {
          "client_id": "241663038141-nmi0406gc6vtmfupm4mbbcls28k5p5jr.apps.googleusercontent.com",
          "client_type": 3
        }
      ],
      "api_key": [
        {
          "current_key": "AIzaSyAURZ4sUCb_Hqk45ZBFRwVqC_sSjdDGtJo"
        }
      ],
      "services": {
        "appinvite_service": {
          "other_platform_oauth_client": [
            {
              "client_id": "241663038141-nmi0406gc6vtmfupm4mbbcls28k5p5jr.apps.googleusercontent.com",
              "client_type": 3
            }
          ]
        }
      }
    },
    {
      "client_info": {
        "mobilesdk_app_id": "1:241663038141:android:c6443dd83114c21e",
        "android_client_info": {
          "package_name": "com.iserveu.rdsc"
        }
      },
      "oauth_client": [
        {
          "client_id": "241663038141-nmi0406gc6vtmfupm4mbbcls28k5p5jr.apps.googleusercontent.com",
          "client_type": 3
        }
      ],
      "api_key": [
        {
          "current_key": "AIzaSyAURZ4sUCb_Hqk45ZBFRwVqC_sSjdDGtJo"
        }
      ],
      "services": {
        "appinvite_service": {
          "other_platform_oauth_client": [
            {
              "client_id": "241663038141-nmi0406gc6vtmfupm4mbbcls28k5p5jr.apps.googleusercontent.com",
              "client_type": 3
            }
          ]
        }
      }
    },
    {
      "client_info": {
        "mobilesdk_app_id": "1:241663038141:android:d3a98738254cc814",
        "android_client_info": {
          "package_name": "com.iserveu.realpay"
        }
      },
      "oauth_client": [
        {
          "client_id": "241663038141-nmi0406gc6vtmfupm4mbbcls28k5p5jr.apps.googleusercontent.com",
          "client_type": 3
        }
      ],
      "api_key": [
        {
          "current_key": "AIzaSyAURZ4sUCb_Hqk45ZBFRwVqC_sSjdDGtJo"
        }
      ],
      "services": {
        "appinvite_service": {
          "other_platform_oauth_client": [
            {
              "client_id": "241663038141-nmi0406gc6vtmfupm4mbbcls28k5p5jr.apps.googleusercontent.com",
              "client_type": 3
            }
          ]
        }
      }
    },
    {
      "client_info": {
        "mobilesdk_app_id": "1:241663038141:android:d28991273450b7a0",
        "android_client_info": {
          "package_name": "com.iserveu.rekha"
        }
      },
      "oauth_client": [
        {
          "client_id": "241663038141-nmi0406gc6vtmfupm4mbbcls28k5p5jr.apps.googleusercontent.com",
          "client_type": 3
        }
      ],
      "api_key": [
        {
          "current_key": "AIzaSyAURZ4sUCb_Hqk45ZBFRwVqC_sSjdDGtJo"
        }
      ],
      "services": {
        "appinvite_service": {
          "other_platform_oauth_client": [
            {
              "client_id": "241663038141-nmi0406gc6vtmfupm4mbbcls28k5p5jr.apps.googleusercontent.com",
              "client_type": 3
            }
          ]
        }
      }
    },
    {
      "client_info": {
        "mobilesdk_app_id": "1:241663038141:android:928a16cd290a3780",
        "android_client_info": {
          "package_name": "com.iserveu.rozpay"
        }
      },
      "oauth_client": [
        {
          "client_id": "241663038141-nmi0406gc6vtmfupm4mbbcls28k5p5jr.apps.googleusercontent.com",
          "client_type": 3
        }
      ],
      "api_key": [
        {
          "current_key": "AIzaSyAURZ4sUCb_Hqk45ZBFRwVqC_sSjdDGtJo"
        }
      ],
      "services": {
        "appinvite_service": {
          "other_platform_oauth_client": [
            {
              "client_id": "241663038141-nmi0406gc6vtmfupm4mbbcls28k5p5jr.apps.googleusercontent.com",
              "client_type": 3
            }
          ]
        }
      }
    },
    {
      "client_info": {
        "mobilesdk_app_id": "1:241663038141:android:92f3b77b7582d278",
        "android_client_info": {
          "package_name": "com.iserveu.sakala"
        }
      },
      "oauth_client": [
        {
          "client_id": "241663038141-nmi0406gc6vtmfupm4mbbcls28k5p5jr.apps.googleusercontent.com",
          "client_type": 3
        }
      ],
      "api_key": [
        {
          "current_key": "AIzaSyAURZ4sUCb_Hqk45ZBFRwVqC_sSjdDGtJo"
        }
      ],
      "services": {
        "appinvite_service": {
          "other_platform_oauth_client": [
            {
              "client_id": "241663038141-nmi0406gc6vtmfupm4mbbcls28k5p5jr.apps.googleusercontent.com",
              "client_type": 3
            }
          ]
        }
      }
    },
    {
      "client_info": {
        "mobilesdk_app_id": "1:241663038141:android:28dad08885ed73c1",
        "android_client_info": {
          "package_name": "com.iserveu.sanpay"
        }
      },
      "oauth_client": [
        {
          "client_id": "241663038141-nmi0406gc6vtmfupm4mbbcls28k5p5jr.apps.googleusercontent.com",
          "client_type": 3
        }
      ],
      "api_key": [
        {
          "current_key": "AIzaSyAURZ4sUCb_Hqk45ZBFRwVqC_sSjdDGtJo"
        }
      ],
      "services": {
        "appinvite_service": {
          "other_platform_oauth_client": [
            {
              "client_id": "241663038141-nmi0406gc6vtmfupm4mbbcls28k5p5jr.apps.googleusercontent.com",
              "client_type": 3
            }
          ]
        }
      }
    },
    {
      "client_info": {
        "mobilesdk_app_id": "1:241663038141:android:1c7ec7a7bbddaa6d",
        "android_client_info": {
          "package_name": "com.iserveu.saralpay"
        }
      },
      "oauth_client": [
        {
          "client_id": "241663038141-nmi0406gc6vtmfupm4mbbcls28k5p5jr.apps.googleusercontent.com",
          "client_type": 3
        }
      ],
      "api_key": [
        {
          "current_key": "AIzaSyAURZ4sUCb_Hqk45ZBFRwVqC_sSjdDGtJo"
        }
      ],
      "services": {
        "appinvite_service": {
          "other_platform_oauth_client": [
            {
              "client_id": "241663038141-nmi0406gc6vtmfupm4mbbcls28k5p5jr.apps.googleusercontent.com",
              "client_type": 3
            }
          ]
        }
      }
    },
    {
      "client_info": {
        "mobilesdk_app_id": "1:241663038141:android:f293f88e703102c7",
        "android_client_info": {
          "package_name": "com.iserveu.saservice"
        }
      },
      "oauth_client": [
        {
          "client_id": "241663038141-nmi0406gc6vtmfupm4mbbcls28k5p5jr.apps.googleusercontent.com",
          "client_type": 3
        }
      ],
      "api_key": [
        {
          "current_key": "AIzaSyAURZ4sUCb_Hqk45ZBFRwVqC_sSjdDGtJo"
        }
      ],
      "services": {
        "appinvite_service": {
          "other_platform_oauth_client": [
            {
              "client_id": "241663038141-nmi0406gc6vtmfupm4mbbcls28k5p5jr.apps.googleusercontent.com",
              "client_type": 3
            }
          ]
        }
      }
    },
    {
      "client_info": {
        "mobilesdk_app_id": "1:241663038141:android:108992ef8f8d980a",
        "android_client_info": {
          "package_name": "com.iserveu.sdpl"
        }
      },
      "oauth_client": [
        {
          "client_id": "241663038141-nmi0406gc6vtmfupm4mbbcls28k5p5jr.apps.googleusercontent.com",
          "client_type": 3
        }
      ],
      "api_key": [
        {
          "current_key": "AIzaSyAURZ4sUCb_Hqk45ZBFRwVqC_sSjdDGtJo"
        }
      ],
      "services": {
        "appinvite_service": {
          "other_platform_oauth_client": [
            {
              "client_id": "241663038141-nmi0406gc6vtmfupm4mbbcls28k5p5jr.apps.googleusercontent.com",
              "client_type": 3
            }
          ]
        }
      }
    },
    {
      "client_info": {
        "mobilesdk_app_id": "1:241663038141:android:4966d71e4f6b6a80",
        "android_client_info": {
          "package_name": "com.iserveu.seapay"
        }
      },
      "oauth_client": [
        {
          "client_id": "241663038141-nmi0406gc6vtmfupm4mbbcls28k5p5jr.apps.googleusercontent.com",
          "client_type": 3
        }
      ],
      "api_key": [
        {
          "current_key": "AIzaSyAURZ4sUCb_Hqk45ZBFRwVqC_sSjdDGtJo"
        }
      ],
      "services": {
        "appinvite_service": {
          "other_platform_oauth_client": [
            {
              "client_id": "241663038141-nmi0406gc6vtmfupm4mbbcls28k5p5jr.apps.googleusercontent.com",
              "client_type": 3
            }
          ]
        }
      }
    },
    {
      "client_info": {
        "mobilesdk_app_id": "1:241663038141:android:2a1583ee80eaa128",
        "android_client_info": {
          "package_name": "com.iserveu.sec2pay"
        }
      },
      "oauth_client": [
        {
          "client_id": "241663038141-nmi0406gc6vtmfupm4mbbcls28k5p5jr.apps.googleusercontent.com",
          "client_type": 3
        }
      ],
      "api_key": [
        {
          "current_key": "AIzaSyAURZ4sUCb_Hqk45ZBFRwVqC_sSjdDGtJo"
        }
      ],
      "services": {
        "appinvite_service": {
          "other_platform_oauth_client": [
            {
              "client_id": "241663038141-nmi0406gc6vtmfupm4mbbcls28k5p5jr.apps.googleusercontent.com",
              "client_type": 3
            }
          ]
        }
      }
    },
    {
      "client_info": {
        "mobilesdk_app_id": "1:241663038141:android:132e45978cdc1760",
        "android_client_info": {
          "package_name": "com.iserveu.shivamdigitalservices"
        }
      },
      "oauth_client": [
        {
          "client_id": "241663038141-nmi0406gc6vtmfupm4mbbcls28k5p5jr.apps.googleusercontent.com",
          "client_type": 3
        }
      ],
      "api_key": [
        {
          "current_key": "AIzaSyAURZ4sUCb_Hqk45ZBFRwVqC_sSjdDGtJo"
        }
      ],
      "services": {
        "appinvite_service": {
          "other_platform_oauth_client": [
            {
              "client_id": "241663038141-nmi0406gc6vtmfupm4mbbcls28k5p5jr.apps.googleusercontent.com",
              "client_type": 3
            }
          ]
        }
      }
    },
    {
      "client_info": {
        "mobilesdk_app_id": "1:241663038141:android:2161c1658938737d",
        "android_client_info": {
          "package_name": "com.iserveu.smartdigiseva"
        }
      },
      "oauth_client": [
        {
          "client_id": "241663038141-nmi0406gc6vtmfupm4mbbcls28k5p5jr.apps.googleusercontent.com",
          "client_type": 3
        }
      ],
      "api_key": [
        {
          "current_key": "AIzaSyAURZ4sUCb_Hqk45ZBFRwVqC_sSjdDGtJo"
        }
      ],
      "services": {
        "appinvite_service": {
          "other_platform_oauth_client": [
            {
              "client_id": "241663038141-nmi0406gc6vtmfupm4mbbcls28k5p5jr.apps.googleusercontent.com",
              "client_type": 3
            }
          ]
        }
      }
    },
    {
      "client_info": {
        "mobilesdk_app_id": "1:241663038141:android:2c291ab5382b8661",
        "android_client_info": {
          "package_name": "com.iserveu.smartodisha"
        }
      },
      "oauth_client": [
        {
          "client_id": "241663038141-nmi0406gc6vtmfupm4mbbcls28k5p5jr.apps.googleusercontent.com",
          "client_type": 3
        }
      ],
      "api_key": [
        {
          "current_key": "AIzaSyAURZ4sUCb_Hqk45ZBFRwVqC_sSjdDGtJo"
        }
      ],
      "services": {
        "appinvite_service": {
          "other_platform_oauth_client": [
            {
              "client_id": "241663038141-nmi0406gc6vtmfupm4mbbcls28k5p5jr.apps.googleusercontent.com",
              "client_type": 3
            }
          ]
        }
      }
    },
    {
      "client_info": {
        "mobilesdk_app_id": "1:241663038141:android:3b0e6bd1e986fe26",
        "android_client_info": {
          "package_name": "com.iserveu.smartpayservice"
        }
      },
      "oauth_client": [
        {
          "client_id": "241663038141-nmi0406gc6vtmfupm4mbbcls28k5p5jr.apps.googleusercontent.com",
          "client_type": 3
        }
      ],
      "api_key": [
        {
          "current_key": "AIzaSyAURZ4sUCb_Hqk45ZBFRwVqC_sSjdDGtJo"
        }
      ],
      "services": {
        "appinvite_service": {
          "other_platform_oauth_client": [
            {
              "client_id": "241663038141-nmi0406gc6vtmfupm4mbbcls28k5p5jr.apps.googleusercontent.com",
              "client_type": 3
            }
          ]
        }
      }
    },
    {
      "client_info": {
        "mobilesdk_app_id": "1:241663038141:android:630df8effa470d9c",
        "android_client_info": {
          "package_name": "com.iserveu.softpe"
        }
      },
      "oauth_client": [
        {
          "client_id": "241663038141-nmi0406gc6vtmfupm4mbbcls28k5p5jr.apps.googleusercontent.com",
          "client_type": 3
        }
      ],
      "api_key": [
        {
          "current_key": "AIzaSyAURZ4sUCb_Hqk45ZBFRwVqC_sSjdDGtJo"
        }
      ],
      "services": {
        "appinvite_service": {
          "other_platform_oauth_client": [
            {
              "client_id": "241663038141-nmi0406gc6vtmfupm4mbbcls28k5p5jr.apps.googleusercontent.com",
              "client_type": 3
            }
          ]
        }
      }
    },
    {
      "client_info": {
        "mobilesdk_app_id": "1:241663038141:android:6c49c03f3de4fa28",
        "android_client_info": {
          "package_name": "com.iserveu.spoint"
        }
      },
      "oauth_client": [
        {
          "client_id": "241663038141-nmi0406gc6vtmfupm4mbbcls28k5p5jr.apps.googleusercontent.com",
          "client_type": 3
        }
      ],
      "api_key": [
        {
          "current_key": "AIzaSyAURZ4sUCb_Hqk45ZBFRwVqC_sSjdDGtJo"
        }
      ],
      "services": {
        "appinvite_service": {
          "other_platform_oauth_client": [
            {
              "client_id": "241663038141-nmi0406gc6vtmfupm4mbbcls28k5p5jr.apps.googleusercontent.com",
              "client_type": 3
            }
          ]
        }
      }
    },
    {
      "client_info": {
        "mobilesdk_app_id": "1:241663038141:android:d91f570bb1d052bf",
        "android_client_info": {
          "package_name": "com.iserveu.sps"
        }
      },
      "oauth_client": [
        {
          "client_id": "241663038141-nmi0406gc6vtmfupm4mbbcls28k5p5jr.apps.googleusercontent.com",
          "client_type": 3
        }
      ],
      "api_key": [
        {
          "current_key": "AIzaSyAURZ4sUCb_Hqk45ZBFRwVqC_sSjdDGtJo"
        }
      ],
      "services": {
        "appinvite_service": {
          "other_platform_oauth_client": [
            {
              "client_id": "241663038141-nmi0406gc6vtmfupm4mbbcls28k5p5jr.apps.googleusercontent.com",
              "client_type": 3
            }
          ]
        }
      }
    },
    {
      "client_info": {
        "mobilesdk_app_id": "1:241663038141:android:dce4c77ecd2bb658",
        "android_client_info": {
          "package_name": "com.iserveu.ssf"
        }
      },
      "oauth_client": [
        {
          "client_id": "241663038141-nmi0406gc6vtmfupm4mbbcls28k5p5jr.apps.googleusercontent.com",
          "client_type": 3
        }
      ],
      "api_key": [
        {
          "current_key": "AIzaSyAURZ4sUCb_Hqk45ZBFRwVqC_sSjdDGtJo"
        }
      ],
      "services": {
        "appinvite_service": {
          "other_platform_oauth_client": [
            {
              "client_id": "241663038141-nmi0406gc6vtmfupm4mbbcls28k5p5jr.apps.googleusercontent.com",
              "client_type": 3
            }
          ]
        }
      }
    },
    {
      "client_info": {
        "mobilesdk_app_id": "1:241663038141:android:473fad7d351ce7a1",
        "android_client_info": {
          "package_name": "com.iserveu.sumptuoustrading"
        }
      },
      "oauth_client": [
        {
          "client_id": "241663038141-nmi0406gc6vtmfupm4mbbcls28k5p5jr.apps.googleusercontent.com",
          "client_type": 3
        }
      ],
      "api_key": [
        {
          "current_key": "AIzaSyAURZ4sUCb_Hqk45ZBFRwVqC_sSjdDGtJo"
        }
      ],
      "services": {
        "appinvite_service": {
          "other_platform_oauth_client": [
            {
              "client_id": "241663038141-nmi0406gc6vtmfupm4mbbcls28k5p5jr.apps.googleusercontent.com",
              "client_type": 3
            }
          ]
        }
      }
    },
    {
      "client_info": {
        "mobilesdk_app_id": "1:241663038141:android:cfd83eed5117d5b5",
        "android_client_info": {
          "package_name": "com.iserveu.swarajya"
        }
      },
      "oauth_client": [
        {
          "client_id": "241663038141-nmi0406gc6vtmfupm4mbbcls28k5p5jr.apps.googleusercontent.com",
          "client_type": 3
        }
      ],
      "api_key": [
        {
          "current_key": "AIzaSyAURZ4sUCb_Hqk45ZBFRwVqC_sSjdDGtJo"
        }
      ],
      "services": {
        "appinvite_service": {
          "other_platform_oauth_client": [
            {
              "client_id": "241663038141-nmi0406gc6vtmfupm4mbbcls28k5p5jr.apps.googleusercontent.com",
              "client_type": 3
            }
          ]
        }
      }
    },
    {
      "client_info": {
        "mobilesdk_app_id": "1:241663038141:android:37178921cff449f6",
        "android_client_info": {
          "package_name": "com.iserveu.thinksimple"
        }
      },
      "oauth_client": [
        {
          "client_id": "241663038141-nmi0406gc6vtmfupm4mbbcls28k5p5jr.apps.googleusercontent.com",
          "client_type": 3
        }
      ],
      "api_key": [
        {
          "current_key": "AIzaSyAURZ4sUCb_Hqk45ZBFRwVqC_sSjdDGtJo"
        }
      ],
      "services": {
        "appinvite_service": {
          "other_platform_oauth_client": [
            {
              "client_id": "241663038141-nmi0406gc6vtmfupm4mbbcls28k5p5jr.apps.googleusercontent.com",
              "client_type": 3
            }
          ]
        }
      }
    },
    {
      "client_info": {
        "mobilesdk_app_id": "1:241663038141:android:eb9ef3a2165563f1",
        "android_client_info": {
          "package_name": "com.iserveu.thumbpay"
        }
      },
      "oauth_client": [
        {
          "client_id": "241663038141-nmi0406gc6vtmfupm4mbbcls28k5p5jr.apps.googleusercontent.com",
          "client_type": 3
        }
      ],
      "api_key": [
        {
          "current_key": "AIzaSyAURZ4sUCb_Hqk45ZBFRwVqC_sSjdDGtJo"
        }
      ],
      "services": {
        "appinvite_service": {
          "other_platform_oauth_client": [
            {
              "client_id": "241663038141-nmi0406gc6vtmfupm4mbbcls28k5p5jr.apps.googleusercontent.com",
              "client_type": 3
            }
          ]
        }
      }
    },
    {
      "client_info": {
        "mobilesdk_app_id": "1:241663038141:android:d20090bb52be986b",
        "android_client_info": {
          "package_name": "com.iserveu.toto"
        }
      },
      "oauth_client": [
        {
          "client_id": "241663038141-nmi0406gc6vtmfupm4mbbcls28k5p5jr.apps.googleusercontent.com",
          "client_type": 3
        }
      ],
      "api_key": [
        {
          "current_key": "AIzaSyAURZ4sUCb_Hqk45ZBFRwVqC_sSjdDGtJo"
        }
      ],
      "services": {
        "appinvite_service": {
          "other_platform_oauth_client": [
            {
              "client_id": "241663038141-nmi0406gc6vtmfupm4mbbcls28k5p5jr.apps.googleusercontent.com",
              "client_type": 3
            }
          ]
        }
      }
    },
    {
      "client_info": {
        "mobilesdk_app_id": "1:241663038141:android:ba390e1b7b35f6f9",
        "android_client_info": {
          "package_name": "com.iserveu.travelxindia"
        }
      },
      "oauth_client": [
        {
          "client_id": "241663038141-nmi0406gc6vtmfupm4mbbcls28k5p5jr.apps.googleusercontent.com",
          "client_type": 3
        }
      ],
      "api_key": [
        {
          "current_key": "AIzaSyAURZ4sUCb_Hqk45ZBFRwVqC_sSjdDGtJo"
        }
      ],
      "services": {
        "appinvite_service": {
          "other_platform_oauth_client": [
            {
              "client_id": "241663038141-nmi0406gc6vtmfupm4mbbcls28k5p5jr.apps.googleusercontent.com",
              "client_type": 3
            }
          ]
        }
      }
    },
    {
      "client_info": {
        "mobilesdk_app_id": "1:241663038141:android:d35359dad6640d4e",
        "android_client_info": {
          "package_name": "com.iserveu.unique"
        }
      },
      "oauth_client": [
        {
          "client_id": "241663038141-nmi0406gc6vtmfupm4mbbcls28k5p5jr.apps.googleusercontent.com",
          "client_type": 3
        }
      ],
      "api_key": [
        {
          "current_key": "AIzaSyAURZ4sUCb_Hqk45ZBFRwVqC_sSjdDGtJo"
        }
      ],
      "services": {
        "appinvite_service": {
          "other_platform_oauth_client": [
            {
              "client_id": "241663038141-nmi0406gc6vtmfupm4mbbcls28k5p5jr.apps.googleusercontent.com",
              "client_type": 3
            }
          ]
        }
      }
    },
    {
      "client_info": {
        "mobilesdk_app_id": "1:241663038141:android:dfeff70ed9bd1099",
        "android_client_info": {
          "package_name": "com.iserveu.uniquepay"
        }
      },
      "oauth_client": [
        {
          "client_id": "241663038141-nmi0406gc6vtmfupm4mbbcls28k5p5jr.apps.googleusercontent.com",
          "client_type": 3
        }
      ],
      "api_key": [
        {
          "current_key": "AIzaSyAURZ4sUCb_Hqk45ZBFRwVqC_sSjdDGtJo"
        }
      ],
      "services": {
        "appinvite_service": {
          "other_platform_oauth_client": [
            {
              "client_id": "241663038141-nmi0406gc6vtmfupm4mbbcls28k5p5jr.apps.googleusercontent.com",
              "client_type": 3
            }
          ]
        }
      }
    },
    {
      "client_info": {
        "mobilesdk_app_id": "1:241663038141:android:824429e274c68a31",
        "android_client_info": {
          "package_name": "com.iserveu.uniquepaysolution"
        }
      },
      "oauth_client": [
        {
          "client_id": "241663038141-nmi0406gc6vtmfupm4mbbcls28k5p5jr.apps.googleusercontent.com",
          "client_type": 3
        }
      ],
      "api_key": [
        {
          "current_key": "AIzaSyAURZ4sUCb_Hqk45ZBFRwVqC_sSjdDGtJo"
        }
      ],
      "services": {
        "appinvite_service": {
          "other_platform_oauth_client": [
            {
              "client_id": "241663038141-nmi0406gc6vtmfupm4mbbcls28k5p5jr.apps.googleusercontent.com",
              "client_type": 3
            }
          ]
        }
      }
    },
    {
      "client_info": {
        "mobilesdk_app_id": "1:241663038141:android:981a9d43217c6027",
        "android_client_info": {
          "package_name": "com.iserveu.unnatbharat"
        }
      },
      "oauth_client": [
        {
          "client_id": "241663038141-nmi0406gc6vtmfupm4mbbcls28k5p5jr.apps.googleusercontent.com",
          "client_type": 3
        }
      ],
      "api_key": [
        {
          "current_key": "AIzaSyAURZ4sUCb_Hqk45ZBFRwVqC_sSjdDGtJo"
        }
      ],
      "services": {
        "appinvite_service": {
          "other_platform_oauth_client": [
            {
              "client_id": "241663038141-nmi0406gc6vtmfupm4mbbcls28k5p5jr.apps.googleusercontent.com",
              "client_type": 3
            }
          ]
        }
      }
    },
    {
      "client_info": {
        "mobilesdk_app_id": "1:241663038141:android:a95e5cf16ae72c7d",
        "android_client_info": {
          "package_name": "com.iserveu.vinayakinfotech"
        }
      },
      "oauth_client": [
        {
          "client_id": "241663038141-nmi0406gc6vtmfupm4mbbcls28k5p5jr.apps.googleusercontent.com",
          "client_type": 3
        }
      ],
      "api_key": [
        {
          "current_key": "AIzaSyAURZ4sUCb_Hqk45ZBFRwVqC_sSjdDGtJo"
        }
      ],
      "services": {
        "appinvite_service": {
          "other_platform_oauth_client": [
            {
              "client_id": "241663038141-nmi0406gc6vtmfupm4mbbcls28k5p5jr.apps.googleusercontent.com",
              "client_type": 3
            }
          ]
        }
      }
    },
    {
      "client_info": {
        "mobilesdk_app_id": "1:241663038141:android:0f6aab60095afee4",
        "android_client_info": {
          "package_name": "com.mnc.paymnc"
        }
      },
      "oauth_client": [
        {
          "client_id": "241663038141-nmi0406gc6vtmfupm4mbbcls28k5p5jr.apps.googleusercontent.com",
          "client_type": 3
        }
      ],
      "api_key": [
        {
          "current_key": "AIzaSyAURZ4sUCb_Hqk45ZBFRwVqC_sSjdDGtJo"
        }
      ],
      "services": {
        "appinvite_service": {
          "other_platform_oauth_client": [
            {
              "client_id": "241663038141-nmi0406gc6vtmfupm4mbbcls28k5p5jr.apps.googleusercontent.com",
              "client_type": 3
            }
          ]
        }
      }
    },
    {
      "client_info": {
        "mobilesdk_app_id": "1:241663038141:android:ee3be270f45428fd",
        "android_client_info": {
          "package_name": "com.mydigitalseva.mydigitalsevaaeps"
        }
      },
      "oauth_client": [
        {
          "client_id": "241663038141-nmi0406gc6vtmfupm4mbbcls28k5p5jr.apps.googleusercontent.com",
          "client_type": 3
        }
      ],
      "api_key": [
        {
          "current_key": "AIzaSyAURZ4sUCb_Hqk45ZBFRwVqC_sSjdDGtJo"
        }
      ],
      "services": {
        "appinvite_service": {
          "other_platform_oauth_client": [
            {
              "client_id": "241663038141-nmi0406gc6vtmfupm4mbbcls28k5p5jr.apps.googleusercontent.com",
              "client_type": 3
            }
          ]
        }
      }
    },
    {
      "client_info": {
        "mobilesdk_app_id": "1:241663038141:android:c0870edb594cd5e7",
        "android_client_info": {
          "package_name": "com.nictpay.nictpayaeps"
        }
      },
      "oauth_client": [
        {
          "client_id": "241663038141-nmi0406gc6vtmfupm4mbbcls28k5p5jr.apps.googleusercontent.com",
          "client_type": 3
        }
      ],
      "api_key": [
        {
          "current_key": "AIzaSyAURZ4sUCb_Hqk45ZBFRwVqC_sSjdDGtJo"
        }
      ],
      "services": {
        "appinvite_service": {
          "other_platform_oauth_client": [
            {
              "client_id": "241663038141-nmi0406gc6vtmfupm4mbbcls28k5p5jr.apps.googleusercontent.com",
              "client_type": 3
            }
          ]
        }
      }
    },
    {
      "client_info": {
        "mobilesdk_app_id": "1:241663038141:android:2c937ed358d9d4c7",
        "android_client_info": {
          "package_name": "com.payesa.payesaaeps"
        }
      },
      "oauth_client": [
        {
          "client_id": "241663038141-nmi0406gc6vtmfupm4mbbcls28k5p5jr.apps.googleusercontent.com",
          "client_type": 3
        }
      ],
      "api_key": [
        {
          "current_key": "AIzaSyAURZ4sUCb_Hqk45ZBFRwVqC_sSjdDGtJo"
        }
      ],
      "services": {
        "appinvite_service": {
          "other_platform_oauth_client": [
            {
              "client_id": "241663038141-nmi0406gc6vtmfupm4mbbcls28k5p5jr.apps.googleusercontent.com",
              "client_type": 3
            }
          ]
        }
      }
    },
    {
      "client_info": {
        "mobilesdk_app_id": "1:241663038141:android:7683cc78208e78cd",
        "android_client_info": {
          "package_name": "com.payforum.payforumaeps"
        }
      },
      "oauth_client": [
        {
          "client_id": "241663038141-nmi0406gc6vtmfupm4mbbcls28k5p5jr.apps.googleusercontent.com",
          "client_type": 3
        }
      ],
      "api_key": [
        {
          "current_key": "AIzaSyAURZ4sUCb_Hqk45ZBFRwVqC_sSjdDGtJo"
        }
      ],
      "services": {
        "appinvite_service": {
          "other_platform_oauth_client": [
            {
              "client_id": "241663038141-nmi0406gc6vtmfupm4mbbcls28k5p5jr.apps.googleusercontent.com",
              "client_type": 3
            }
          ]
        }
      }
    },
    {
      "client_info": {
        "mobilesdk_app_id": "1:241663038141:android:d09ace2ab72fd7c9",
        "android_client_info": {
          "package_name": "com.payparmoney.payparmoneyaeps"
        }
      },
      "oauth_client": [
        {
          "client_id": "241663038141-nmi0406gc6vtmfupm4mbbcls28k5p5jr.apps.googleusercontent.com",
          "client_type": 3
        }
      ],
      "api_key": [
        {
          "current_key": "AIzaSyAURZ4sUCb_Hqk45ZBFRwVqC_sSjdDGtJo"
        }
      ],
      "services": {
        "appinvite_service": {
          "other_platform_oauth_client": [
            {
              "client_id": "241663038141-nmi0406gc6vtmfupm4mbbcls28k5p5jr.apps.googleusercontent.com",
              "client_type": 3
            }
          ]
        }
      }
    },
    {
      "client_info": {
        "mobilesdk_app_id": "1:241663038141:android:5d6c350cc4853fcc",
        "android_client_info": {
          "package_name": "com.pmoney.perfectmoney"
        }
      },
      "oauth_client": [
        {
          "client_id": "241663038141-nmi0406gc6vtmfupm4mbbcls28k5p5jr.apps.googleusercontent.com",
          "client_type": 3
        }
      ],
      "api_key": [
        {
          "current_key": "AIzaSyAURZ4sUCb_Hqk45ZBFRwVqC_sSjdDGtJo"
        }
      ],
      "services": {
        "appinvite_service": {
          "other_platform_oauth_client": [
            {
              "client_id": "241663038141-nmi0406gc6vtmfupm4mbbcls28k5p5jr.apps.googleusercontent.com",
              "client_type": 3
            }
          ]
        }
      }
    },
    {
      "client_info": {
        "mobilesdk_app_id": "1:241663038141:android:54af4ba7f46543a0",
        "android_client_info": {
          "package_name": "com.rcec.rekha"
        }
      },
      "oauth_client": [
        {
          "client_id": "241663038141-nmi0406gc6vtmfupm4mbbcls28k5p5jr.apps.googleusercontent.com",
          "client_type": 3
        }
      ],
      "api_key": [
        {
          "current_key": "AIzaSyAURZ4sUCb_Hqk45ZBFRwVqC_sSjdDGtJo"
        }
      ],
      "services": {
        "appinvite_service": {
          "other_platform_oauth_client": [
            {
              "client_id": "241663038141-nmi0406gc6vtmfupm4mbbcls28k5p5jr.apps.googleusercontent.com",
              "client_type": 3
            }
          ]
        }
      }
    },
    {
      "client_info": {
        "mobilesdk_app_id": "1:241663038141:android:f294723ad50aa5ce",
        "android_client_info": {
          "package_name": "com.samriddhi.aeps"
        }
      },
      "oauth_client": [
        {
          "client_id": "241663038141-nmi0406gc6vtmfupm4mbbcls28k5p5jr.apps.googleusercontent.com",
          "client_type": 3
        }
      ],
      "api_key": [
        {
          "current_key": "AIzaSyAURZ4sUCb_Hqk45ZBFRwVqC_sSjdDGtJo"
        }
      ],
      "services": {
        "appinvite_service": {
          "other_platform_oauth_client": [
            {
              "client_id": "241663038141-nmi0406gc6vtmfupm4mbbcls28k5p5jr.apps.googleusercontent.com",
              "client_type": 3
            }
          ]
        }
      }
    },
    {
      "client_info": {
        "mobilesdk_app_id": "1:241663038141:android:1a811af085c5a9b7",
        "android_client_info": {
          "package_name": "com.seapay.seapayaeps"
        }
      },
      "oauth_client": [
        {
          "client_id": "241663038141-nmi0406gc6vtmfupm4mbbcls28k5p5jr.apps.googleusercontent.com",
          "client_type": 3
        }
      ],
      "api_key": [
        {
          "current_key": "AIzaSyAURZ4sUCb_Hqk45ZBFRwVqC_sSjdDGtJo"
        }
      ],
      "services": {
        "appinvite_service": {
          "other_platform_oauth_client": [
            {
              "client_id": "241663038141-nmi0406gc6vtmfupm4mbbcls28k5p5jr.apps.googleusercontent.com",
              "client_type": 3
            }
          ]
        }
      }
    },
    {
      "client_info": {
        "mobilesdk_app_id": "1:241663038141:android:f91922500e8b010b",
        "android_client_info": {
          "package_name": "com.shubhmoney.shubhmoneyaeps"
        }
      },
      "oauth_client": [
        {
          "client_id": "241663038141-nmi0406gc6vtmfupm4mbbcls28k5p5jr.apps.googleusercontent.com",
          "client_type": 3
        }
      ],
      "api_key": [
        {
          "current_key": "AIzaSyAURZ4sUCb_Hqk45ZBFRwVqC_sSjdDGtJo"
        }
      ],
      "services": {
        "appinvite_service": {
          "other_platform_oauth_client": [
            {
              "client_id": "241663038141-nmi0406gc6vtmfupm4mbbcls28k5p5jr.apps.googleusercontent.com",
              "client_type": 3
            }
          ]
        }
      }
    },
    {
      "client_info": {
        "mobilesdk_app_id": "1:241663038141:android:d984985356bf5e71",
        "android_client_info": {
          "package_name": "com.smartpayservice.smartpayserviceaeps"
        }
      },
      "oauth_client": [
        {
          "client_id": "241663038141-nmi0406gc6vtmfupm4mbbcls28k5p5jr.apps.googleusercontent.com",
          "client_type": 3
        }
      ],
      "api_key": [
        {
          "current_key": "AIzaSyAURZ4sUCb_Hqk45ZBFRwVqC_sSjdDGtJo"
        }
      ],
      "services": {
        "appinvite_service": {
          "other_platform_oauth_client": [
            {
              "client_id": "241663038141-nmi0406gc6vtmfupm4mbbcls28k5p5jr.apps.googleusercontent.com",
              "client_type": 3
            }
          ]
        }
      }
    },
    {
      "client_info": {
        "mobilesdk_app_id": "1:241663038141:android:ae5550f3358d4092",
        "android_client_info": {
          "package_name": "com.somriddhi.somriddhiaeps"
        }
      },
      "oauth_client": [
        {
          "client_id": "241663038141-nmi0406gc6vtmfupm4mbbcls28k5p5jr.apps.googleusercontent.com",
          "client_type": 3
        }
      ],
      "api_key": [
        {
          "current_key": "AIzaSyAURZ4sUCb_Hqk45ZBFRwVqC_sSjdDGtJo"
        }
      ],
      "services": {
        "appinvite_service": {
          "other_platform_oauth_client": [
            {
              "client_id": "241663038141-nmi0406gc6vtmfupm4mbbcls28k5p5jr.apps.googleusercontent.com",
              "client_type": 3
            }
          ]
        }
      }
    },
    {
      "client_info": {
        "mobilesdk_app_id": "1:241663038141:android:cc244314a4445f93",
        "android_client_info": {
          "package_name": "com.suvidha.suvidhamart"
        }
      },
      "oauth_client": [
        {
          "client_id": "241663038141-nmi0406gc6vtmfupm4mbbcls28k5p5jr.apps.googleusercontent.com",
          "client_type": 3
        }
      ],
      "api_key": [
        {
          "current_key": "AIzaSyAURZ4sUCb_Hqk45ZBFRwVqC_sSjdDGtJo"
        }
      ],
      "services": {
        "appinvite_service": {
          "other_platform_oauth_client": [
            {
              "client_id": "241663038141-nmi0406gc6vtmfupm4mbbcls28k5p5jr.apps.googleusercontent.com",
              "client_type": 3
            }
          ]
        }
      }
    },
    {
      "client_info": {
        "mobilesdk_app_id": "1:241663038141:android:74d3f4e891ed7221",
        "android_client_info": {
          "package_name": "com.suvidhamart.suvidha"
        }
      },
      "oauth_client": [
        {
          "client_id": "241663038141-nmi0406gc6vtmfupm4mbbcls28k5p5jr.apps.googleusercontent.com",
          "client_type": 3
        }
      ],
      "api_key": [
        {
          "current_key": "AIzaSyAURZ4sUCb_Hqk45ZBFRwVqC_sSjdDGtJo"
        }
      ],
      "services": {
        "appinvite_service": {
          "other_platform_oauth_client": [
            {
              "client_id": "241663038141-nmi0406gc6vtmfupm4mbbcls28k5p5jr.apps.googleusercontent.com",
              "client_type": 3
            }
          ]
        }
      }
    }
  ],
  "configuration_version": "1"
}